{"data":{"list":[{"title":"BBC: Nhắc nhở giao dịch cổ phiếu quỹ không đúng quy định","adminNote":null,"postedDate":null,"createdUser":47,"publishFrom":1714003200,"publishTo":1716595200,"approvedDate":1746809027,"approvedUser":64,"updatedDate":null,"updatedUser":null,"catId":null,"permission":null,"mark":null,"summary":"<p>Nhắc nhở giao dịch cổ phiếu quỹ không đúng quy định</p>","createdDate":1714058910,"publishType":null,"viewOption":2,"langId":1,"description":null,"code":null,"rawId":null,"id":1682699,"relatedType":1,"createdUserName":null,"updatedUserName":null,"deleted":0,"alias":null,"relatedId":2215,"newsType":1,"link":null},{"title":"KHP: Điều lệ công ty sửa đổi lần thứ 25","adminNote":null,"postedDate":1781290809,"createdUser":78,"publishFrom":1781222400,"publishTo":1938988800,"approvedDate":1781290809,"approvedUser":64,"updatedDate":null,"updatedUser":null,"catId":21,"permission":null,"mark":null,"summary":"<p>Công ty Cổ phần Điện lực Khánh Hòa công bố Điều lệ công ty sửa đổi lần thứ 25 như sau:</p>","createdDate":1781290809,"publishType":null,"viewOption":null,"langId":1,"description":null,"code":null,"rawId":null,"id":2470198,"relatedType":1,"createdUserName":null,"updatedUserName":null,"deleted":0,"alias":null,"relatedId":2173,"newsType":1,"link":null},{"title":"HDB: Thông báo chào bán trái phiếu HDBank ra công chúng - Đợt 2","adminNote":null,"postedDate":1781290369,"createdUser":78,"publishFrom":1781222400,"publishTo":1938988800,"approvedDate":1781290369,"approvedUser":64,"updatedDate":null,"updatedUser":null,"catId":21,"permission":null,"mark":null,"summary":"<p>Ngân hàng Thương mại Cổ phần Phát triển Thành phố Hồ Chí Minh thông báo chào bán trái phiếu HDBank ra công chúng - Đợt 2 như sau:</p>","createdDate":1781290369,"publishType":null,"viewOption":null,"langId":1,"description":null,"code":null,"rawId":null,"id":2470197,"relatedType":1,"createdUserName":null,"updatedUserName":null,"deleted":0,"alias":null,"relatedId":2722,"newsType":1,"link":null},{"title":"NHA: Thông báo nhận được xin thôi đảm nhiệm chức vụ Kế toán trưởng","adminNote":null,"postedDate":1781290311,"createdUser":78,"publishFrom":1781222400,"publishTo":1938988800,"approvedDate":1781290311,"approvedUser":64,"updatedDate":null,"updatedUser":null,"catId":21,"permission":null,"mark":null,"summary":"<p>Tổng Công ty Đầu tư Phát triển Nhà và Đô thị Nam Hà Nội thông báo nhận được xin thôi đảm nhiệm chức vụ Kế toán trưởng như sau:</p>","createdDate":1781290311,"publishType":null,"viewOption":null,"langId":1,"description":null,"code":null,"rawId":null,"id":2470196,"relatedType":1,"createdUserName":null,"updatedUserName":null,"deleted":0,"alias":null,"relatedId":3111,"newsType":1,"link":null},{"title":"IMP: Thông báo về việc lấy ý kiến cổ đông bằng văn bản","adminNote":null,"postedDate":1781290299,"createdUser":392,"publishFrom":1781222400,"publishTo":1938988800,"approvedDate":1781290299,"approvedUser":383,"updatedDate":null,"updatedUser":null,"catId":21,"permission":null,"mark":null,"summary":"<p>Công ty Cổ phần Dược phẩm Imexpharm thông báo về việc lấy ý kiến cổ đông bằng văn bản như sau:</p>","createdDate":1781290299,"publishType":null,"viewOption":null,"langId":1,"description":null,"code":null,"rawId":null,"id":2470195,"relatedType":1,"createdUserName":null,"updatedUserName":null,"deleted":0,"alias":null,"relatedId":2140,"newsType":1,"link":null}],"object":null,"paging":{"pageIndex":1,"pageSize":5,"totalCount":384089,"totalPages":76818}},"success":true,"message":null}